NKU_China InterLab 2017
…
## combine into result
total_2016 <- fluorescence_2016 %>% dplyr::select(4) %>% cbind(Abs, .) 
names(total_2016)[4:5] = c('Abs', 'fluorescence'); 
                                                                                     
## change and add columns
promotor <- c('device 1' = 'J23101', 'device 2' = 'J23106', 'device 3' = 'J23117')
total_2016 %<>% dplyr::mutate(
    device = ifelse(str_detect(device, '\\d'), promotor[device], device),
    Abs = Abs %>% as.character %>% as.numeric,
    fluorescence = fluorescence %>% as.character %>% as.numeric,
    value = fluorescence/Abs
) %>% dplyr::as_tibble() %T>% print

## # A tibble: 60 x 6
##    device           time  replicate   Abs fluorescence   value
##    <chr>            <chr> <fct>     <dbl>        <dbl>   <dbl>
##  1 positive control 0 h   1         0.285       4.02   14.1   
##  2 positive control 1 h   1         0.425      18.2    42.9   
##  3 positive control 2 h   1         0.477      31.1    65.2   
##  4 positive control 3 h   1         1.04       56.4    54.5   
##  5 positive control 4 h   1         1.26       67.6    53.6   
##  6 positive control 5 h   1         1.54       83.2    53.8   
##  7 negative control 0 h   1         0.345       0.147   0.427 
##  8 negative control 1 h   1         0.253       0.137   0.540 
##  9 negative control 2 h   1         0.499       0.338   0.678 
## 10 negative control 3 h   1         1.04        0.0744  0.0719
## # ... with 50 more rows
…
## Residuals 27 0.014135 0.0005235                      
## ---
## Signif. codes:  0 '***' 0.001 '**' 0.01 '*' 0.05 '.' 0.1 ' ' 1
## Analysis of Variance Table
## 
## Response: norm.by.both
##           Df     Sum Sq    Mean Sq F value    Pr(>F)    
## device     2 3.2197e-05 1.6098e-05 12.9263 0.0001153 ***
## time       5 1.3270e-05 2.6540e-06  2.1310 0.0921999 .  
## replicate  1 6.5940e-06 6.5939e-06  5.2946 0.0293436 *  
## Residuals 27 3.3626e-05 1.2454e-06                      
## ---
## Signif. codes:  0 '***' 0.001 '**' 0.01 '*' 0.05 '.' 0.1 ' ' 1

## # A tibble: 36 x 9
##    device time  replicate   Abs fluorescence value norm.by.time
##    <chr>  <chr> <fct>     <dbl>        <dbl> <dbl>        <dbl>
##  1 J23101 0 h   1         0.187        11.1   59.2        4.61 
##  2 J23101 1 h   1         0.150        15.4  103.         2.95 
##  3 J23101 2 h   1         0.175        17.0   97.2        1.85 
##  4 J23101 3 h   1         0.246        19.5   79.0        1.69 
##  5 J23101 4 h   1         0.381        20.6   54.1        1.19 
##  6 J23101 5 h   1         0.323        25.1   77.7        1.59 
##  7 J23106 0 h   1         0.167         3.69  22.1        1.72 
##  8 J23106 1 h   1         0.250         8.85  35.4        1.02 
##  9 J23106 2 h   1         0.550        27.6   50.2        0.956
## 10 J23106 3 h   1         1.24         55.9   45.2        0.969
## # ... with 26 more rows, and 2 more variables: norm.by.promoter <dbl>,
## #   norm.by.both <dbl>
…
